Accessing childes-db
…
# get the average mlu across all Adam's transcripts
mean(d_adam_stats$mlu_w)

## [1] 3.559118

Get SQL Query

The get_sql_query() function returns a table from a SQL query run on the specified database. For example, if you wanted to see the top 10 corpora in the Eng-NA collection with the highest count of token for “dog”, you could run the following call.

d_na_dog <- get_sql_query("SELECT corpus_name, COUNT(id) AS count FROM token WHERE collection_name = 'Eng-NA' AND gloss = 'dog' GROUP BY corpus_name")

dplyr::arrange(d_na_dog, desc(count))

## # A tibble: 55 x 2
##    corpus_name  count
##    <chr>        <dbl>
##  1 HSLLD         1261
##  2 Providence     862
##  3 Brown          546
##  4 Weist          437
##  5 NewmanRatner   433
##  6 Suppes         421
##  7 Gelman         388
##  8 Hall           337
##  9 Brent          277
## 10 Davis          241
## # … with 45 more rows
